Phase 1A LPA - STARS & RMARS
…
## tidyLPA analysis using mclust: 
## 
##  Model Classes AIC     BIC     Entropy prob_min prob_max n_min n_max BLRT_p
##  6     6       2289.94 2434.91 0.61    0.51     0.84     0.05  0.33  0.41

tidyLPA::get_estimates(ph1a_mod1)

## # A tibble: 24 x 8
##    Category  Parameter Estimate     se        p Class Model Classes
##    <chr>     <chr>        <dbl>  <dbl>    <dbl> <int> <dbl>   <dbl>
##  1 Means     stars        0.847 0.100  2.71e-17     1     1       6
##  2 Means     rmars        0.817 0.141  7.67e- 9     1     1       6
##  3 Variances stars        0.294 0.0380 1.02e-14     1     1       6
##  4 Variances rmars        0.151 0.0233 9.22e-11     1     1       6
##  5 Means     stars       -1.48  0.208  9.35e-13     2     1       6
##  6 Means     rmars       -1.52  0.147  2.37e-25     2     1       6
##  7 Variances stars        0.294 0.0380 1.02e-14     2     1       6
##  8 Variances rmars        0.151 0.0233 9.22e-11     2     1       6
##  9 Means     stars        0.813 0.293  5.51e- 3     3     1       6
## 10 Means     rmars       -0.988 0.217  5.02e- 6     3     1       6
## # ... with 14 more rows
…
Boxes reflecting the standard deviations within each class; a box encompasses +/- 64% of the observations in a normal distribution

Raw data, whose transparency is weighted by the posterior class probability, such that each datapoint is most clearly visible for the class it is most likely to be a member of.

# create object containing profile no. for each case
library(tidyLPA) # for some reason using the namespace before the get_data function doesn't work - package must be loaded in advance

## You can use the function citation('tidyLPA') to create a citation for the use of {tidyLPA}.
## Mplus is not installed. Use only package = 'mclust' when calling estimate_profiles().

profile <- get_data(ph1a_mod1)
get_data(ph1a_mod1)

## # A tibble: 465 x 11
##    model_number classes_number   stars   rmars   CPROB1   CPROB2   CPROB3
##           <dbl>          <dbl>   <dbl>   <dbl>    <dbl>    <dbl>    <dbl>
##  1            1              6 -0.185   0.0855 1.47e- 2 2.77e- 6 4.18e- 4
##  2            1              6 -2.24   -2.28   5.48e-20 9.99e- 1 3.73e- 9
##  3            1              6  0.760   0.660  7.85e- 1 1.12e-11 2.07e- 5
##  4            1              6  0.816   0.0855 2.21e- 1 1.50e- 8 5.63e- 3
##  5            1              6 -0.464   0.149  8.77e- 3 5.55e- 6 1.20e- 4
##  6            1              6  1.93    2.19   1.10e- 3 7.21e-29 2.75e-16
##  7            1              6 -0.742  -1.38   2.43e- 9 2.91e- 1 3.17e- 3
##  8            1              6  0.983   0.788  9.20e- 1 3.11e-13 5.14e- 6
##  9            1              6  0.0371  0.852  5.24e- 1 1.17e-10 1.51e- 6
## 10            1              6  0.260  -0.170  1.58e- 2 4.60e- 6 9.08e- 3
## # ... with 455 more rows, and 4 more variables: CPROB4 <dbl>, CPROB5 <dbl>,
## #   CPROB6 <dbl>, Class <dbl>
…
