Phase 1B LPA - STARS, STARS_M, RMARS, RMARS_S
…
tidyLPA::get_estimates(ph1b_mod1)

## # A tibble: 48 x 8
##    Category  Parameter Estimate     se        p Class Model Classes
##    <chr>     <chr>        <dbl>  <dbl>    <dbl> <int> <dbl>   <dbl>
##  1 Means     stars        0.834 0.0920 1.20e-19     1     1       6
##  2 Means     stars_m      0.894 0.109  2.08e-16     1     1       6
##  3 Means     rmars        0.862 0.126  7.16e-12     1     1       6
##  4 Means     rmars_s      0.829 0.0762 1.52e-27     1     1       6
##  5 Variances stars        0.189 0.0176 7.76e-27     1     1       6
##  6 Variances stars_m      0.173 0.0188 2.51e-20     1     1       6
##  7 Variances rmars        0.222 0.0257 5.48e-18     1     1       6
##  8 Variances rmars_s      0.215 0.0230 1.02e-20     1     1       6
##  9 Means     stars       -1.43  0.136  7.94e-26     2     1       6
## 10 Means     stars_m     -1.38  0.151  4.86e-20     2     1       6
## # ... with 38 more rows

# create object containing profile no. for each case
library(tidyLPA) # for some reason using the namespace before the get_data function doesn't work - package must be loaded in advance

## You can use the function citation('tidyLPA') to create a citation for the use of {tidyLPA}.
## Mplus is not installed. Use only package = 'mclust' when calling estimate_profiles().

profile <- get_data(ph1b_mod1)
get_data(ph1b_mod1)

## # A tibble: 465 x 13
##    model_number classes_number   stars stars_m   rmars rmars_s   CPROB1   CPROB2
##           <dbl>          <dbl>   <dbl>   <dbl>   <dbl>   <dbl>    <dbl>    <dbl>
##  1            1              6 -0.185  -0.152   0.0855   0.297 4.61e- 4 9.18e-10
##  2            1              6 -2.24   -2.33   -2.28    -2.50  1.42e-41 1.00e+ 0
##  3            1              6  0.760   0.534   0.660    1.14  9.71e- 1 9.56e-22
##  4            1              6  0.816   0.0355  0.0855   1.08  3.28e- 1 6.95e-17
##  5            1              6 -0.464  -0.463   0.149   -0.288 2.43e- 6 2.53e- 6
##  6            1              6  1.93    2.16    2.19     2.12  1.85e- 6 5.34e-54
##  7            1              6 -0.742  -1.21   -1.38    -1.13  3.56e-17 7.48e- 1
##  8            1              6  0.983   0.472   0.788    1.14  9.89e- 1 4.32e-23
##  9            1              6  0.0371  0.971   0.852    0.946 9.45e- 1 2.22e-20
## 10            1              6  0.260   0.347  -0.170   -0.223 1.70e- 3 8.40e-11
## # ... with 455 more rows, and 5 more variables: CPROB3 <dbl>, CPROB4 <dbl>,
## #   CPROB5 <dbl>, CPROB6 <dbl>, Class <dbl>
…
